sample_well	state_key	extraction_date	collection_date	ct	age	sex	source
A00	test001	2020-10-31	2020-11-06	22.2	42	MALE	
b00	test002	2020-10-31	2020-11-06	27.6	99	FEMALE	
C00	test-empty	2020-10-31	2020-11-06	22.2	42	MALE	
D00	test-lowcov	2020-10-31	2020-11-06	27.6	42	FEMALE	
