sample	theiacov_workflow	theiacov_version	theiacov_analysis_date	seq_platform	primer_bed_name	percent_reference_coverage	number_n	pangolin_lineage	pangolin_conflicts	pangolin_notes	pangolin_version	pangolin_docker	pangolin_usher_version	nextclade_clade	nextclade_aa_subs	nextclade_aa_dels	vadr_num_alerts	assembly_length_unambiguous	assembly_mean_coverage	assembly_method	number_degenerate	number_total	meanbaseq_trim	meanmapq_trim	fastqc_clean1	fastqc_clean2	fastqc_clean_pairs	fastqc_raw1	fastqc_raw2	fastqc_raw_pairs	kraken_human	kraken_human_dehosted	kraken_sc2	kraken_sc2_dehosted	primer_trimmed_read_percent	artic_version	bbduk_docker	bwa_version	fastqc_version	ivar_variant_version	ivar_version_consensus	ivar_version_primtrim	kraken_version	nextclade_version	samtools_version	samtools_version_consensus	samtools_version_primtrim	samtools_version_stats	trimmomatic_version	vadr_docker
test001	theiacov_illumina_pe	PHVG v1.5.0-dev	2021-08-10	Illumina paired-end	artic-v3.primers.bed	89.05	3234	B.1.2	0.0	Usher placements: B.1.2(1/1)	pangolin 3.1.10; PUSHER-v1.2.46	quay.io/biocontainers/pangolin:3.1.10--pyhdfd78af_0		NA	NA	NA	0	26628	294.22	BWA Version: 0.7.17-r1188; iVar version 1.3.1	2	29864	38.5	60.0	35284	35284	35284	48907	48907	48907	15.08	0.97	80.03	80.12	29.09		staphb/bbtools:38.76	BWA Version: 0.7.17-r1188	FastQC v0.11.8	iVar version 1.3.1	iVar version 1.3.1	iVar version 1.3.1	Kraken version 2.0.8-beta	0.14.4	samtools 1.10	samtools 1.10	samtools 1.10	samtools 1.10	Trimmomatic 0.39	staphb/vadr:1.2.1
test002	theiacov_illumina_pe	PHVG v1.5.0-dev	2021-08-10	Illumina paired-end	artic-v3.primers.bed	71.27	8530	B.1.2	0.0	Usher placements: B.1.2(1/1)	pangolin 3.1.10; PUSHER-v1.2.46	quay.io/biocontainers/pangolin:3.1.10--pyhdfd78af_0		NA	NA	NA	1	21311	230.842	BWA Version: 0.7.17-r1188; iVar version 1.3.1	1	29842	38.4	60.0	29998	29998	29998	40072	40072	40072	12.55	1.07	82.64	82.64	29.09		staphb/bbtools:38.76	BWA Version: 0.7.17-r1188	FastQC v0.11.8	iVar version 1.3.1	iVar version 1.3.1	iVar version 1.3.1	Kraken version 2.0.8-beta	0.14.4	samtools 1.10	samtools 1.10	samtools 1.10	samtools 1.10	Trimmomatic 0.39	staphb/vadr:1.2.1
